%YAML 1.1
%TAG !u! tag:unity3d.com,2011:
--- !u!1045 &1
EditorBuildSettings:
  m_ObjectHideFlags: 0
  serializedVersion: 2
  m_Scenes:
  - enabled: 1
    path: Assets/Scenes/MainMenu.unity
    guid: 2cda990e2423bbf4892e6590ba056729
  - enabled: 1
    path: Assets/Scenes/w kolejnosci/MediumOrder.unity
    guid: 24d5804c661525b4f94ad89f8b2ca6b9
  - enabled: 1
    path: Assets/Scenes/Puzzle/Scenes/vertical/veasy.unity
    guid: 1ba778725cdbc624793936b9e778bbc0
  - enabled: 1
    path: Assets/Scenes/Puzzle/Scenes/vertical/vhard.unity
    guid: 356f5035d1ffe8f44afca10c0f59b928
  - enabled: 1
    path: Assets/Scenes/Puzzle/Scenes/vertical/vmedium.unity
    guid: 1692f0b2e41626545beb9e8f57058a3f
  - enabled: 1
    path: Assets/Scenes/soundboard/Scenes/Forest.unity
    guid: c76b7494a8b0d1e45a301e19653d91e7
  - enabled: 1
    path: Assets/Scenes/soundboard/Scenes/Jungle.unity
    guid: 64beb60034404f443baf04bb6067b3c9
  - enabled: 1
    path: Assets/Scenes/soundboard/Scenes/SampleScene.unity
    guid: 10684c7674ba1fe428b434354cc6b4fb
  - enabled: 1
    path: Assets/Scenes/zgadywanie/NormalGuess.unity
    guid: a1b1ab25ef944e54a9b7a2f932628e62
  - enabled: 1
    path: Assets/Scenes/w kolejnosci/EasyOrder.unity
    guid: 63e445b5acc08e042abb9674a53497e6
  - enabled: 1
    path: Assets/Scenes/zgadywanie/HardGuess.unity
    guid: 50932ac234f0bf843a6e9d69a3ee484d
  - enabled: 1
    path: Assets/Scenes/zgadywanie/EasyGuess.unity
    guid: b9972fb3b6051304e87f49fe1d99d938
  - enabled: 1
    path: Assets/Scenes/Puzzle/Scenes/HardPuzzleSquare.unity
    guid: eb5bc728338b2ad4583d8c405614b986
  - enabled: 1
    path: Assets/Scenes/Puzzle/Scenes/MediumPuzzleSquare.unity
    guid: e4d85ba738709b9408b2434b7aadc285
  - enabled: 1
    path: Assets/Scenes/Puzzle/Scenes/EasyPuzzleSquare.unity
    guid: 11d886e436e7b61449596c485b218c87
  - enabled: 1
    path: Assets/Scenes/w kolejnosci/HardOrder.unity
    guid: 68beb790a28001042aef2f1a91d9eb1d
  m_configObjects: {}
